{
"name":"PEPhotoCropEditor",
"version":	"1.3.3",
"summary":	"Image cropping library for iOS, similar to the Photos.app UI. Edited By david90",
"homepage":	"https://github.com/david90/PEPhotoCropEditor",
"social_media_url":"https://twitter.com/k_katsumi",
"license":{
"type":	"MIT",
"file":		"LICENSE"
	},
"authors":{
"kishikawa katsumi":"kishikawakatsumi@mac.com"
	},
"source":{
"git":		"https://github.com/david90/PEPhotoCropEditor.git",
"tag":			"v1.3.3"
	},
"platforms":{
"ios":		"5.0"
	},
"requires_arc":true,
"source_files":"Lib/*",
"resources":	"Resources/PEPhotoCropEditor.bundle",
"frameworks":	[
		 "QuartzCore",
		 "AVFoundation"
		]
}
